<?xml version="1.0" encoding="utf-8"?>
<!-- Generator: Adobe Illustrator 21.0.1, SVG Export Plug-In . SVG Version: 6.00 Build 0)  -->
<svg version="1.1" id="Layer_1" xmlns="http://www.w3.org/2000/svg" xmlns:xlink="http://www.w3.org/1999/xlink" x="0px" y="0px"
	 viewBox="0 0 20 20" style="enable-background:new 0 0 20 20;" xml:space="preserve">
<style type="text/css">
	.st0{fill:#010101;}
</style>
<title>adjust</title>
<desc>Created with Sketch.</desc>
<path class="st0" d="M10,1.9c-2.2,0-4.2,0.9-5.8,2.4S1.9,7.8,1.9,10s0.9,4.2,2.4,5.8s3.6,2.4,5.8,2.4s4.2-0.9,5.8-2.4
	c1.6-1.5,2.4-3.6,2.4-5.8s-0.9-4.2-2.4-5.8S12.2,1.9,10,1.9z M10,0L10,0c5.5,0,10,4.5,10,10s-4.5,10-10,10S0,15.5,0,10S4.5,0,10,0z
	 M8.8,13.8h2.5v2.5H8.8V13.8z M8.8,3.8h2.5v7.5H8.8V3.8z"/>
</svg>
