<?xml version="1.0" encoding="utf-8"?>
<!-- Generator: Adobe Illustrator 19.2.1, SVG Export Plug-In . SVG Version: 6.00 Build 0)  -->
<svg version="1.1" id="Layer_1" xmlns="http://www.w3.org/2000/svg" xmlns:xlink="http://www.w3.org/1999/xlink" x="0px" y="0px"
	 viewBox="0 0 40 40" enable-background="new 0 0 40 40" xml:space="preserve">
<path fill="#010101" d="M20,4C11.2,4,4,11.2,4,20s7.2,16,16,16s16-7.2,16-16S28.8,4,20,4z M20,32c-6.6,0-12-5.4-12-12S13.4,8,20,8
	s12,5.4,12,12S26.6,32,20,32z M14,20c0-3.3,2.7-6,6-6s6,2.7,6,6s-2.7,6-6,6S14,23.3,14,20z"/>
</svg>
