<?xml version="1.0" encoding="utf-8"?>
<!-- Generator: Adobe Illustrator 19.2.1, SVG Export Plug-In . SVG Version: 6.00 Build 0)  -->
<svg version="1.1" id="Layer_1" xmlns="http://www.w3.org/2000/svg" xmlns:xlink="http://www.w3.org/1999/xlink" x="0px" y="0px"
	 viewBox="0 0 40 40" enable-background="new 0 0 40 40" xml:space="preserve">
<path fill="#010101" d="M4,20.4c0,1.5,0.1,2.8,0.4,3.9s0.6,2.2,1.1,3.1s1.1,1.6,1.8,2.3c0.7,0.7,1.5,1.2,2.4,1.6s1.9,0.8,3,1
	c1.1,0.3,2.2,0.4,3.4,0.5C17.3,33,18.6,33,20,33c1.4,0,2.7-0.1,3.8-0.2s2.3-0.3,3.4-0.5c1.1-0.3,2.1-0.6,3-1c0.9-0.4,1.7-1,2.4-1.6
	s1.4-1.4,1.8-2.3s0.9-1.9,1.1-3.1c0.3-1.2,0.4-2.5,0.4-3.9c0-2.6-0.9-4.8-2.6-6.7c0.1-0.3,0.2-0.5,0.3-0.9s0.2-0.8,0.2-1.4
	s0-1.3-0.1-2c-0.1-0.8-0.3-1.6-0.7-2.4l-0.2,0c-0.2,0-0.4,0-0.8,0s-0.8,0.1-1.3,0.3c-0.5,0.1-1.2,0.4-2,0.8C28,8.5,27.2,9,26.3,9.6
	C24.7,9.2,22.7,9,20,9c-2.7,0-4.7,0.2-6.3,0.6C12.8,9,12,8.5,11.2,8.1c-0.8-0.4-1.5-0.7-1.9-0.8C8.8,7.2,8.3,7.1,7.9,7
	C7.5,7,7.2,7,7.1,7C7,7,6.9,7,6.9,7.1C6.5,7.9,6.3,8.7,6.2,9.4c-0.1,0.8-0.1,1.5-0.1,2s0.1,1,0.2,1.4s0.2,0.6,0.3,0.9
	C4.9,15.6,4,17.8,4,20.4L4,20.4z M7.9,24.3c0-1.5,0.7-2.9,2-4.1c0.4-0.4,0.9-0.7,1.4-0.9s1.2-0.3,1.8-0.3c0.7,0,1.3,0,2,0
	s1.4,0.1,2.3,0.1s1.7,0.1,2.4,0.1s1.5,0,2.4-0.1s1.7-0.1,2.3-0.1s1.3,0,2,0c0.7,0,1.3,0.1,1.8,0.3c0.5,0.2,1,0.5,1.4,0.9
	c1.4,1.2,2,2.6,2,4.1c0,0.9-0.1,1.7-0.3,2.4c-0.2,0.7-0.5,1.3-0.9,1.7c-0.4,0.5-0.8,0.9-1.5,1.2c-0.6,0.3-1.2,0.6-1.8,0.8
	s-1.3,0.3-2.3,0.4S23.4,31,22.7,31c-0.7,0-1.6,0-2.8,0s-2,0-2.8,0c-0.7,0-1.5-0.1-2.5-0.2s-1.7-0.2-2.3-0.4
	c-0.6-0.2-1.2-0.4-1.8-0.8c-0.6-0.3-1.1-0.7-1.5-1.2c-0.3-0.5-0.6-1.1-0.9-1.7C8,26,7.9,25.2,7.9,24.3L7.9,24.3z M24,24
	c0-1.7,0.9-3,2-3s2,1.3,2,3s-0.9,3-2,3S24,25.7,24,24z M12,24c0-1.7,0.9-3,2-3s2,1.3,2,3s-0.9,3-2,3S12,25.7,12,24z"/>
</svg>
