<?xml version="1.0" encoding="utf-8"?>
<!-- Generator: Adobe Illustrator 19.2.1, SVG Export Plug-In . SVG Version: 6.00 Build 0)  -->
<svg version="1.1" id="Layer_1" xmlns="http://www.w3.org/2000/svg" xmlns:xlink="http://www.w3.org/1999/xlink" x="0px" y="0px"
	 viewBox="0 0 40 40" enable-background="new 0 0 40 40" xml:space="preserve">
<g>
	<path fill="#010101" d="M16,15h5.5v2.8h0.1c0.8-1.4,2.7-2.8,5.5-2.8c5.8,0,6.9,3.6,6.9,8.4V33h-5.8v-8.5c0-2,0-4.7-3-4.7
		c-3,0-3.5,2.2-3.5,4.5V33H16V15z"/>
	<path fill="#010101" d="M6,15h6v18H6V15z"/>
	<path fill="#010101" d="M12,10c0,1.7-1.3,3-3,3s-3-1.3-3-3s1.3-3,3-3S12,8.3,12,10z"/>
</g>
</svg>
