<?xml version="1.0" encoding="utf-8"?>
<!-- Generator: Adobe Illustrator 19.2.1, SVG Export Plug-In . SVG Version: 6.00 Build 0)  -->
<svg version="1.1" id="Layer_1" xmlns="http://www.w3.org/2000/svg" xmlns:xlink="http://www.w3.org/1999/xlink" x="0px" y="0px"
	 viewBox="0 0 40 40" enable-background="new 0 0 40 40" xml:space="preserve">
<path fill="#010101" d="M34.5,22.1c0.1-0.6,0.1-1.3,0.1-2C34.6,12,28,5.5,19.9,5.5c-0.8,0-1.6,0.1-2.4,0.2c-1.4-0.9-3-1.4-4.8-1.4
	C7.9,4.2,4,8.2,4,13c0,1.8,0.5,3.4,1.4,4.8c-0.1,0.8-0.2,1.5-0.2,2.3c0,8.1,6.6,14.6,14.7,14.6c0.9,0,1.8-0.1,2.7-0.2
	c1.3,0.8,2.9,1.3,4.6,1.3c4.8,0,8.8-3.9,8.8-8.8C36,25.2,35.4,23.5,34.5,22.1L34.5,22.1z M21.3,30.8c-4.7,0.2-6.9-0.8-8.9-2.7
	c-2.2-2.1-1.3-4.5,0.5-4.6c1.8-0.1,2.9,2.1,3.9,2.7c1,0.6,4.7,2,6.6-0.2c2.1-2.4-1.4-3.7-4-4.1c-3.7-0.5-8.4-2.5-8-6.5
	c0.4-3.9,3.3-6,6.5-6.2c4-0.4,6.6,0.6,8.7,2.4c2.4,2,1.1,4.3-0.4,4.5c-1.5,0.2-3.2-3.3-6.5-3.4c-3.4-0.1-5.8,3.6-1.5,4.6
	c4.2,1,8.8,1.5,10.4,5.3C30.2,26.5,26,30.6,21.3,30.8L21.3,30.8z"/>
</svg>
